<?xml version="1.0" encoding="utf-8"?>
<!-- Generator: Adobe Illustrator 19.2.1, SVG Export Plug-In . SVG Version: 6.00 Build 0)  -->
<svg version="1.1" id="Calque_1" xmlns="http://www.w3.org/2000/svg" xmlns:xlink="http://www.w3.org/1999/xlink" x="0px" y="0px"
	 viewBox="0 0 300 300" style="enable-background:new 0 0 300 300;" xml:space="preserve">
<style type="text/css">
	.st0{fill:#818181;}
</style>
<g>
	<path class="st0" d="M276.9,130.5c-2.5,2.5-6.6,2.5-9.1,0L187.3,50c-2.5-2.5-2.5-6.6,0-9.1l19.4-19.4c2.5-2.5,6.6-2.5,9.1,0
		l80.5,80.5c2.5,2.5,2.5,6.6,0,9.1L276.9,130.5z"/>
	<path class="st0" d="M113.5,41.1c2.5,2.5,2.5,6.6,0,9.1L33,130.7c-2.5,2.5-6.6,2.5-9.1,0L4.5,111.3c-2.5-2.5-2.5-6.6,0-9.1
		l80.5-80.5c2.5-2.5,6.6-2.5,9.1,0L113.5,41.1z"/>
	<path class="st0" d="M255.1,180l-12.5-12.5l9-9c3.6-3.6,5.5-8.4,5.5-13.1c0-4.6-1.7-9.2-5.2-12.7l-73.5-73.4
		c-3.4-3.4-8.6-4.4-13.1-4.4c-5.4,0-10.8,2.3-14.9,6.4c0,0-2.9,2.9-7,7l-1.9-1.9c-3.6-3.6-8.4-5.4-13.1-5.4c-4.6,0-9.2,1.7-12.7,5.2
		l-66.3,66.3c-3.5,3.5-5.3,8.1-5.3,12.7c0,4.7,1.9,9.5,5.5,13.2l9.3,9.2l-12.7,12.7c-3.6,3.6-5.4,8.3-5.4,13c0,4.7,1.8,9.4,5.4,13
		l3.8,3.8c3.2,3.2,7.4,5,11.6,5.3c0.3,4.2,2.1,8.3,5.3,11.5l3.8,3.8c3.2,3.2,7.4,5,11.6,5.3c0.3,4.2,2.1,8.3,5.3,11.6l3.8,3.8
		c3.2,3.2,7.4,5,11.6,5.3c0.3,4.2,2.1,8.4,5.3,11.6l3.8,3.8c3.6,3.6,8.3,5.4,13,5.4h0c4.7,0,9.4-1.8,13-5.4l12.7-12.7l12.5,12.5
		c3.6,3.6,8.3,5.4,13,5.4h0c4.7,0,9.4-1.8,13-5.3l3.8-3.8c3.2-3.2,5-7.4,5.3-11.6c4.2-0.3,8.4-2.1,11.6-5.3l3.8-3.8
		c3.2-3.2,5-7.4,5.3-11.6c4.2-0.3,8.4-2.1,11.6-5.3l3.8-3.8c3.2-3.2,5-7.4,5.3-11.6c4.2-0.3,8.4-2.1,11.6-5.3l3.8-3.8
		c3.6-3.6,5.4-8.3,5.4-13C260.5,188.3,258.7,183.6,255.1,180z M246,196.9l-3.8,3.8c-1.1,1.1-2.5,1.6-3.9,1.6c-1.4,0-2.8-0.5-3.9-1.6
		l-22.5-22.5c-0.4-0.4-0.8-0.7-1.3-1c-1-0.6-2.1-0.9-3.3-0.9c-0.2,0-0.4,0-0.6,0c-1.4,0.1-2.8,0.8-3.9,1.9c-1.9,1.9-2.4,4.8-1.4,7.1
		c0.3,0.7,0.8,1.4,1.4,2l0,0l11.2,11.2l11.2,11.2l0,0c1.1,1.1,1.6,2.5,1.6,3.9c0,1.4-0.5,2.8-1.6,3.9l-3.8,3.8
		c-1.1,1.1-2.5,1.6-3.9,1.6c-1.4,0-2.8-0.5-3.9-1.6l-22.5-22.5c-2.5-2.5-6.6-2.5-9.1,0c-0.5,0.5-0.8,1-1.1,1.6c-0.5,0.9-0.7,2-0.7,3
		c0,1.6,0.6,3.3,1.9,4.5l22.5,22.5c1.1,1.1,1.6,2.5,1.6,3.9c0,1.4-0.5,2.8-1.6,3.9l-3.8,3.8c-1.1,1.1-2.5,1.6-3.9,1.6
		c-1.4,0-2.8-0.5-3.9-1.6l-22.5-22.5c-0.6-0.6-1.3-1.1-2.1-1.4c-2.3-0.9-5.1-0.5-7,1.4c-1.3,1.2-1.9,2.9-1.9,4.6
		c0,1.7,0.7,3.3,1.9,4.6l0,0l22.5,22.5c1.1,1.1,1.6,2.5,1.6,3.9c0,1.4-0.6,2.8-1.6,3.9l-3.8,3.8c-1.1,1.1-2.5,1.6-3.9,1.6
		c-1.4,0-2.8-0.5-3.9-1.6L158.5,249c0.7-2,1-4,1-6c0-4.7-1.8-9.4-5.4-13l-3.8-3.8c-3.2-3.2-7.4-5-11.6-5.4
		c-0.3-4.2-2.1-8.3-5.3-11.5l-3.8-3.8c-3.2-3.2-7.3-5-11.5-5.3c-0.3-4.2-2.1-8.4-5.3-11.6l-3.8-3.8c-3.2-3.2-7.4-5-11.6-5.3
		c-0.3-4.2-2.1-8.4-5.3-11.6l-3.8-3.8c-3.6-3.6-8.3-5.4-13-5.4c-2,0-4.1,0.4-6,1l-10.6-10.6c-1.2-1.1-1.7-2.6-1.7-4
		c0-1.4,0.5-2.6,1.4-3.6l66.3-66.3c1-1,2.2-1.5,3.6-1.5c1.4,0,2.9,0.5,4,1.7l1.9,1.9C125.6,86,116.6,95,116.5,95
		c-4.1,3.6-6.4,8.8-6.4,14.3c0,1.1,0.1,2.2,0.3,3.4l6.7,36.3c1.7,8.9,9.3,15.1,18.1,15.1c1.1,0,2.2-0.1,3.3-0.3l5.3-1
		c8.9-1.7,15.1-9.4,15.1-18.1c0-1.1-0.1-2.2-0.3-3.3l-4.4-24.3l10-10l81.9,81.9c1.1,1.1,1.6,2.5,1.6,3.9
		C247.6,194.4,247.1,195.8,246,196.9z"/>
</g>
</svg>
